[gd_scene load_steps=3 format=3 uid="uid://btduxqx1eorm8"]

[ext_resource type="PackedScene" uid="uid://jcyanp7olo0h" path="res://game/gadget/projectile/projectile.tscn" id="1_8l5hj"]
[ext_resource type="Script" path="res://plugins/items/components/drop_item.gd" id="2_trkcp"]

[node name="Projectile" type="Entity"]

[node name="Projectile" parent="." instance=ExtResource("1_8l5hj")]

[node name="DropItem" type="Component" parent="."]
script = ExtResource("2_trkcp")
