[gd_scene load_steps=5 format=3 uid="uid://doqbav3awlbx8"]

[ext_resource type="Script" path="res://plugins/items/item_entity.gd" id="1_kefb5"]
[ext_resource type="Script" path="res://plugins/items/components/dropped_item.gd" id="2_axmjq"]
[ext_resource type="PackedScene" uid="uid://cjcxe5y8u4gge" path="res://plugins/map/components/Hex.tscn" id="3_sox4j"]
[ext_resource type="PackedScene" uid="uid://dflpq1otrpf2d" path="res://plugins/general/components/Body.tscn" id="5_qsgka"]

[node name="DroppedItemEntity" type="Entity"]
script = ExtResource("1_kefb5")

[node name="DroppedItem" type="Component" parent="."]
script = ExtResource("2_axmjq")

[node name="Hex" parent="." instance=ExtResource("3_sox4j")]

[node name="Body" type="RemoteTransform3D" parent="Hex"]
remote_path = NodePath("../../Body")

[node name="Body" parent="." instance=ExtResource("5_qsgka")]
